7af9e4ea8ade59e7f9dde746a518cc13c134b6a3e5f06ae53bd0b16c755abd389ba749fb9d43072fdec6de82c227dfb9262386822b9dbac964259297e881d9b1 //Darling#9775
fb4da54e8d5c9013db2389b324f0fbdfda6f2f2b78f67de29a65a3332ee622c196f55a10b9a7f0754344c0c097a11ed2ef50019442dd6de94b429874704ecc01 //Steantet#3165
2e0a09fdbdda74121960ce5563335b17eea1bb2d767a7205135b52ebf78ff5c07050537d577594ce9e62f1b9f3d8491dc337a610185b803330ddff6b4771a433 //Руслан Утюг#0798 Д
8bd31ed66edcfba173c89ec73076113b3d1579dca8a8249984d3ecf4e0a143d8d2dcf69894eaca1565fac34eb608b9a2c2847192bdd286d663b9dfaa4bcda161 //Руслан Утюг#0798
028c72b7759842a75643a0208453dba8c5a0fee8c16d696704126783820a1d98997b7463013e21b3d30de662d9588053db94ec1914383a9785bb01b0cfaac0f6 //Java
b0d95d9ff06e9a0817a3f39cf4b0065e9a05c700725f23011d88c1277a4145ee703f9dc2b036e04819b09790b4d8ac5c947fb3541c1e7be94c8fb2d013c6ec04 //Тянка
54216751eb0ca3440d191120bbea9ad7ce3e2b401ff3e6919ca7c1c6d6983f2d5bdf5f2a05247f67197b5687ff13321d056aba0f00563f17d2d0b9daf08d86dd //Китаец
28f85e4c016e7310188099ebf7b25ad40418460f0147530707418178a233bf2edc0a876709966940d97a2aa4fdafb8bc61e5a936d5d3b3a1236a1eb0668b669d //YT